{
  "extends": [
    "tslint:recommended"
  ],
  "rulesDirectory": [
    "node_modules/codelyzer"
  ],
  "rules": {
    "member-ordering": false,
    "member-access": false,
    "curly": false,
    "trailing-comma": [
      false,
      {
        "multiline": "always",
        "singleline": "never"
      }
    ],
    "component-class-suffix": true,
    "directive-class-suffix": true,
    "import-destructuring-spacing": false,
    "invoke-injectable": true,
    "no-access-missing-member": true,
    "no-attribute-parameter-decorator": true,
    "no-forward-ref": true,
    "no-input-rename": false,
    "no-output-rename": false,
    "pipe-naming": false,
    "templates-use-public": false,
    "use-host-property-decorator": true,
    "use-input-property-decorator": true,
    "use-life-cycle-interface": false,
    "use-output-property-decorator": true,
    "use-pipe-transform-interface": true,
    "no-console": [
      true,
      "time",
      "timeEnd",
      "trace"
    ],
    "no-string-literal": false,
    "no-use-before-declare": true,
    "object-literal-sort-keys": false,
    "ordered-imports": false,
    "variable-name": [
      true,
      "ban-keywords",
      "allow-leading-underscore",
      "allow-trailing-underscore"
    ],
    "whitespace": false,
    "typedef-whitespace": false,
    "max-line-length": [
      true,
      500
    ],
    "no-empty": false,
    "one-line": false,
    "triple-equals": false,
    "comment-format": false,
    "only-arrow-functions": true,
    "no-consecutive-blank-lines": true,
    "semicolon": false,
    "no-var-keyword": true,
    "array-type": [
      true,
      "array"
    ],
    "no-shadowed-variable": false,
    "object-literal-shorthand": false,
    "no-conditional-assignment": false,
    "class-name": false,
    "max-classes-per-file": false,
    "no-trailing-whitespace": false,
    "quotemark": false,
    "prefer-const": false
  }
}
